type	D	Experiment run. n	 avg. abs.error	 avg. rel. error	 percentage rel.error<=1
FF	16	40000	1.19084	0.318597	0.89695
TS	16	40000	0.874863	0.309182	0.96745
FF	32	40000	0.818519	0.24858	0.9589
TS	32	40000	0.443576	0.167695	0.995
FF	64	40000	0.884155	0.245245	0.9367
TS	64	40000	4.30E-001	1.62E-001	0.995
FF	128	40000	0.470648	0.162697	0.98855
TS	128	40000	4.32E-001	1.64E-001	0.995
FF	256	40000	0.391349	0.136481	0.9923
TS	256	40000	1.07E-015	4.52E-016	0.995
FF	512	40000	0.273743	0.0988347	0.9944
TS	512	40000	1.10E-015	4.67E-016	0.995
FF	1024	40000	0.145455	0.0524732	0.995
TS	1024	40000	1.16E-015	4.89E-016	0.995
FF	2048	40000	0.110083	0.0400459	0.995
TS	2048	40000	1.07E-015	4.51E-016	0.995
FF	4096	40000	0.071717	0.0260858	0.995
TS	4096	40000	1.15E-015	4.84E-016	0.995
