I hope you gave me n, D,sigma,p
92
d: 8192
classes: 10
n: 60000
35
d: 4096
classes: 10
n: 60000
All read. Rows: 60000
allocation success!
All read. Rows: 60000
allocation success!
FF predict:
Accuracy = 97.97% (9797/10000)
TS predict:
Accuracy = 97.35% (9735/10000)
I hope you gave me n, D,sigma,p
92
d: 8192
classes: 10
n: 60000
35
d: 4096
classes: 10
n: 60000
All read. Rows: 60000
allocation success!
All read. Rows: 60000
allocation success!
FF predict:
Accuracy = 97.99% (9799/10000)
TS predict:
Accuracy = 97.35% (9735/10000)
I hope you gave me n, D,sigma,p
93
d: 8192
classes: 10
n: 60000
34
d: 4096
classes: 10
n: 60000
All read. Rows: 60000
allocation success!
All read. Rows: 60000
allocation success!
FF predict:
Accuracy = 97.99% (9799/10000)
TS predict:
Accuracy = 97.4% (9740/10000)
I hope you gave me n, D,sigma,p
94
d: 8192
classes: 10
n: 60000
35
d: 4096
classes: 10
n: 60000
All read. Rows: 60000
allocation success!
All read. Rows: 60000
allocation success!
FF predict:
Accuracy = 98.16% (9816/10000)
TS predict:
Accuracy = 97.41% (9741/10000)
I hope you gave me n, D,sigma,p
93
d: 8192
classes: 10
n: 60000
35
d: 4096
classes: 10
n: 60000
All read. Rows: 60000
allocation success!
All read. Rows: 60000
allocation success!
FF predict:
Accuracy = 98.05% (9805/10000)
TS predict:
Accuracy = 97.48% (9748/10000)
I hope you gave me n, D,sigma,p
92
d: 8192
classes: 10
n: 60000
34
d: 4096
classes: 10
n: 60000
All read. Rows: 60000
allocation success!
All read. Rows: 60000
allocation success!
FF predict:
Accuracy = 98.22% (9822/10000)
TS predict:
Accuracy = 97.35% (9735/10000)
I hope you gave me n, D,sigma,p
92
d: 8192
classes: 10
n: 60000
35
d: 4096
classes: 10
n: 60000
All read. Rows: 60000
allocation success!
All read. Rows: 60000
allocation success!
FF predict:
Accuracy = 98.12% (9812/10000)
TS predict:
Accuracy = 97.32% (9732/10000)
I hope you gave me n, D,sigma,p
93
d: 8192
classes: 10
n: 60000
35
d: 4096
classes: 10
n: 60000
All read. Rows: 60000
allocation success!
All read. Rows: 60000
allocation success!
FF predict:
Accuracy = 98.06% (9806/10000)
TS predict:
Accuracy = 97.38% (9738/10000)
I hope you gave me n, D,sigma,p
93
d: 8192
classes: 10
n: 60000
35
d: 4096
classes: 10
n: 60000
All read. Rows: 60000
allocation success!
All read. Rows: 60000
allocation success!
FF predict:
Accuracy = 98.1% (9810/10000)
TS predict:
Accuracy = 97.5% (9750/10000)
I hope you gave me n, D,sigma,p
93
d: 8192
classes: 10
n: 60000
35
d: 4096
classes: 10
n: 60000
All read. Rows: 60000
allocation success!
All read. Rows: 60000
allocation success!
FF predict:
Accuracy = 98.16% (9816/10000)
TS predict:
Accuracy = 97.41% (9741/10000)
